v 187.27 238.95 299.79
v 187.36 239.11 299.41
v 187.44 239.26 299.03
v 187.47 239.33 298.86
v 187.6 239.6 298.17
v 187.71 239.93 297.18
v 187.8 240.14 296.42
v 187.88 240.31 295.76
v 188 240.55 294.73
v 188.07 240.66 294.18
v 188.09 240.85 293.52
v 188.1 241.02 292.73
v 188.11 241.2 291.94
v 188.17 241.38 291.19
v 188.17 241.51 290.78
v 188.24 241.87 289.71
v 188.33 242.2 288.85
v 188.52 242.77 287.48
v 188.71 243.12 286.88
v 188.79 243.44 286.23
v 189.02 243.88 285.47
v 189.28 244.44 284.56
v 189.43 244.79 283.89
v 189.77 245.59 282.64
v 189.99 246.18 281.83
v 190.09 246.62 281.41
v 190.2 247.06 280.75
v 190.25 247.31 280.37
v 190.31 247.88 279.66
v 190.38 248.71 278.55
v 190.39 249.16 277.9
v 190.41 249.84 276.97
v 190.4 250.22 276.28
v 190.38 250.59 275.63
v 190.37 251.1 274.75
v 190.35 251.44 274.1
v 190.33 251.84 273.4
v 190.31 252.18 272.74
v 190.29 252.45 271.92
v 190.16 252.87 270.73
v 190.1 253.11 270.09
v 190.04 253.32 269.55
v 189.95 253.67 268.72
v 189.89 253.9 268.18
v 189.81 254.24 267.41
v 189.75 254.55 266.81
v 189.73 254.69 266.53
v 189.68 255.04 265.96
v 189.58 255.25 264.98
v 189.54 255.43 264.27
v 189.51 255.63 263.79
v 189.43 255.99 262.86
v 189.38 256.25 262.28
v 189.34 256.48 261.77
v 189.26 256.88 260.92
v 189.22 257.1 260.49
v 189.14 257.35 259.89
v 189.05 257.56 259.1
v 189.02 257.79 258.43
v 189.01 258 257.88
v 189 258.32 257
v 189.02 258.39 256.36
v 189.04 258.47 255.67
v 189.06 258.5 255.31
v 189.1 258.61 254.21
v 189.14 258.67 253.48
v 189.17 258.7 252.86
v 189.19 258.72 252.47
v 189.21 258.72 252.12
v 189.23 258.73 251.69
v 189.26 258.72 251.1
v 189.26 258.71 250.41
v 189.27 258.72 249.49
v 189.31 258.74 248.66
v 189.31 258.6 247.5
v 189.34 258.66 246.36
v 189.37 258.73 245.66
v 189.37 258.85 245.02
v 189.39 258.98 244.36
v 189.43 259.19 243.79
v 189.43 259.3 243.34
v 189.41 259.51 242.55
v 189.47 259.72 241.83
v 189.46 259.87 241.35
v 189.44 260.02 240.88
v 189.42 260.22 240.25
v 189.4 260.38 239.8
v 189.38 260.53 239.37
v 189.35 260.7 238.9
v 189.34 260.85 238.52
v 189.33 261.02 238.1
v 189.32 261.26 237.52
v 189.37 261.92 236.07
v 189.39 262.31 235.18
v 189.39 262.7 234.33
v 189.4 263.09 233.45
v 189.42 263.33 232.75
v 189.46 263.56 232.02
v 189.48 263.79 231.24
v 189.5 263.88 230.95
v 189.51 263.96 230.64
v 189.55 264.13 230.02
v 189.59 264.32 229.32
v 189.62 264.47 228.79
v 189.69 264.65 228.09
v 189.77 264.84 227.34
v 189.93 265.04 226.48
v 190 265.15 225.97
v 190.03 265.22 225.65
v 190.22 265.31 224.77
v 190.27 265.41 224.22
v 190.35 265.51 223.44
v 190.39 265.57 222.99
v 190.42 265.64 222.55
v 190.46 265.82 221.59
v 190.47 265.97 220.96
v 190.46 266.13 220.41
v 190.44 266.32 219.82
v 190.42 266.49 219.31
v 190.38 266.79 218.46
v 190.29 267.15 217.42
v 190.23 267.37 216.76
v 190.17 267.63 215.98
v 190.1 268.11 215
v 189.98 268.3 214.5
v 189.83 268.8 213.01
v 189.77 269.05 212.29
v 189.73 269.37 211.38
v 189.67 269.77 210.21
v 189.63 269.99 209.42
v 189.55 270.38 208.24
v 189.6 270.68 207.35
v 189.53 270.8 206.76
v 189.46 270.98 206.08
v 189.44 271.04 205.83
v 189.41 271.18 205.21
v 189.39 271.33 204.56
v 189.4 271.42 204.06
v 189.54 271.55 203.45
v 189.48 271.78 202.25
v 189.47 271.87 201.73
v 189.37 272 200.97
v 190.39 272.19 200.46
v 188.18 272.03 200.21
v 187.8 272.05 199.86
v 187.38 272.07 199.46
v 186.84 272.14 198.94
v 186.31 272.15 198.42
v 185.5 272.18 197.55
v 184.93 272.17 196.96
v 184.21 272.15 196.27
v 183.43 272.22 195.43
v 182.74 272.19 194.74
v 182.36 272.17 194.31
v 181.74 272.16 193.59
v 181.37 272.16 193.16
v 180.99 272.17 192.72
v 180.55 272.18 192.2
v 179.95 272.2 191.53
v 179.09 272.21 190.51
v 178.25 272.22 189.76
v 177.77 272.2 189.38
v 177.27 272.2 188.85
v 176.4 272.18 187.97
v 175.73 272.17 187.42
v 175.02 272.16 186.91
v 174.62 272.15 186.51
v 173.56 272.08 185.69
v 173.07 272.07 185.23
v 172.71 272.06 184.89
v 171.91 272.02 184.14
v 171.37 271.98 183.65
v 170.56 271.91 182.86
v 169.6 271.81 181.89
v 168.27 271.65 180.76
v 168.1 271.76 179.56
v 167.11 271.41 180.79
v 166.51 271.26 180.92
v 165.91 271.11 181.04
v 165.26 270.96 181.19
v 164.57 270.82 181.25
v 163.38 270.53 181.63
v 162.05 270.24 182.15
v 161.24 270.05 182.46
v 160.26 269.77 182.76
v 159.16 269.39 183.14
v 158.39 269.07 183.4
v 157.95 268.85 183.59
v 157.52 268.66 183.76
v 156.86 268.3 184.12
v 156.12 267.84 184.4
v 168.13 271.85 178.96
v 168.03 271.95 178.15
v 167.89 272.13 176.87
v 167.78 272.28 175.99
v 167.68 272.42 175.14
v 167.61 272.63 174.2
v 167.56 272.75 173.63
v 167.51 272.92 172.77
v 167.27 273.05 171.66
v 167.06 273.11 170.96
v 166.95 273.15 170.57
v 166.75 273.19 169.94
v 166.54 273.24 169.31
v 166.2 273.31 168.57
v 165.95 273.34 167.88
v 165.71 273.35 167.36
v 165.24 273.36 166.4
v 164.93 273.33 165.68
v 164.67 273.31 164.99
v 164.46 273.29 164.38
v 164.28 273.25 163.75
v 164.11 273.2 163.03
v 163.94 273.11 162.52
v 163.48 272.98 161.54
v 163.2 272.98 161
v 162.95 272.87 160.23
v 162.72 272.68 159.48
v 162.48 272.58 158.87
v 162.3 272.5 158.37
v 161.88 272.31 157.33
v 161.67 272 156.45
v 161.5 271.7 155.52
v 161.02 271.47 154.58
v 160.67 271.27 153.83
v 160.45 271.17 153.38
v 160.17 271.05 152.76
v 159.88 270.93 152.1
v 159.61 270.86 151.62
v 159.46 270.8 151.31
v 159.27 270.71 150.94
v 158.82 270.46 150.11
v 158.47 270.3 149.45
v 158.21 270.13 148.96
v 191.35 272.5 199.75
v 192.48 273.08 198.56
v 193.28 273.56 198
v 194.27 274.29 197.05
v 194.54 274.58 196.68
v 195.06 274.95 196.14
v 195.67 275.46 195.45
v 196.4 276.05 194.62
v 196.82 276.33 194.14
v 197.19 276.54 193.7
v 197.66 276.82 193.07
v 197.94 276.98 192.68
v 198.28 277.24 192.24
v 198.58 277.51 191.88
v 199.15 277.85 190.93
v 199.45 278.11 190.49
v 199.79 278.34 189.95
v 200.08 278.53 189.51
v 200.74 278.97 188.54
v 201.13 279.21 188.03
v 201.53 279.44 187.58
v 202.17 279.79 186.93
v 202.73 280.1 186.37
v 203.21 280.36 185.92
v 203.61 280.57 185.57
v 204.15 280.87 185.09
v 204.5 281.02 184.73
v 204.84 281.21 184.41
v 205.23 281.41 184.02
v 205.8 281.64 183.38
v 206.07 281.77 183.08
v 206.55 281.96 182.62
v 206.94 282.1 182.26
v 207.59 282.32 181.62
v 207.98 282.44 181.23
v 208.46 282.56 180.79
v 208.89 282.67 180.41
v 209.4 282.79 179.97
v 210.25 282.99 179.35
v 210.58 283.07 178.89
v 210.73 283.08 178.7
v 211.41 283.21 177.99
v 211.84 283.3 177.58
v 212.22 283.38 177.26
v 212.5 283.44 177.04
v 213.12 283.57 176.57
v 213.99 283.75 175.94
v 214.41 283.84 175.65
v 214.67 283.9 175.47
v 215.15 284.01 175.15
v 215.59 284.11 174.85
v 216.08 284.19 174.53
v 216.73 284.27 174.13
v 217.32 284.37 173.75
v 218.25 284.57 173.14
v 218.72 284.67 172.85
v 219.14 284.77 172.58
v 219.65 284.84 172.2
v 220.64 285.02 171.46
v 221.25 285.15 171.04
v 221.74 285.22 170.74
v 222.18 285.3 170.46
v 222.68 285.38 170.15
v 223.39 285.5 169.74
v 223.69 285.54 169.58
v 223.94 285.57 169.46
v 224.64 285.67 169.08
v 225.28 285.76 168.77
v 226.02 285.89 168.39
v 227.29 286.09 167.72
v 228.39 286.18 167.14
v 229.31 286.29 166.67
v 229.84 286.32 166.4
v 230.04 286.33 166.3
v 230.62 286.36 166.01
v 231.36 286.41 165.65
v 231.94 286.43 165.38
v 232.57 286.45 165.1
v 233.58 286.47 164.72
v 234.26 286.56 164.37
v 235.05 286.64 164.02
v 236.06 286.62 163.72
v 236.69 286.4 163.71
v 236.46 287.24 163.03
v 237.07 287.89 162.18
v 237.41 288.55 161.42
v 237.85 289.12 160.74
v 238.16 289.56 160.14
v 238.9 290.33 159.04
v 239.55 290.96 158.01
v 239.96 291.37 157.34
v 240.14 291.55 157.05
v 240.47 291.88 156.52
v 240.77 292.21 156.01
v 241.08 292.57 155.47
v 241.35 292.93 154.96
v 241.43 293.04 154.79
v 241.78 293.71 154.11
v 237.02 286.15 163.83
v 237.46 285.72 164.05
v 238.49 285.01 164.37
v 238.86 284.76 164.48
v 239.46 284.39 164.64
v 240.19 283.92 164.75
v 240.66 283.7 164.87
v 241.63 283.21 165.08
v 242.01 283.04 165.2
v 242.52 282.79 165.38
v 243.06 282.63 165.46
v 243.47 282.5 165.55
v 244.18 282.3 165.59
v 244.89 282.04 165.83
v 245.43 281.72 166.07
v 245.93 281.53 166.23
v 246.53 281.29 166.42
v 247.34 280.94 166.73
v 248.04 280.65 166.99
v 248.94 280.22 167.37
v 249.78 279.88 167.79
v 250.46 279.61 168.09
v 251.4 279.2 168.55
l 1 2 
l 2 3 
l 3 4 
l 4 5 
l 5 6 
l 6 7 
l 7 8 
l 8 9 
l 9 10 
l 10 11 
l 11 12 
l 12 13 
l 13 14 
l 14 15 
l 15 16 
l 16 17 
l 17 18 
l 18 19 
l 19 20 
l 20 21 
l 21 22 
l 22 23 
l 23 24 
l 24 25 
l 25 26 
l 26 27 
l 27 28 
l 28 29 
l 29 30 
l 30 31 
l 31 32 
l 32 33 
l 33 34 
l 34 35 
l 35 36 
l 36 37 
l 37 38 
l 38 39 
l 39 40 
l 40 41 
l 41 42 
l 42 43 
l 43 44 
l 44 45 
l 45 46 
l 46 47 
l 47 48 
l 48 49 
l 49 50 
l 50 51 
l 51 52 
l 52 53 
l 53 54 
l 54 55 
l 55 56 
l 56 57 
l 57 58 
l 58 59 
l 59 60 
l 60 61 
l 61 62 
l 62 63 
l 63 64 
l 64 65 
l 65 66 
l 66 67 
l 67 68 
l 68 69 
l 69 70 
l 70 71 
l 71 72 
l 72 73 
l 73 74 
l 74 75 
l 75 76 
l 76 77 
l 77 78 
l 78 79 
l 79 80 
l 80 81 
l 81 82 
l 82 83 
l 83 84 
l 84 85 
l 85 86 
l 86 87 
l 87 88 
l 88 89 
l 89 90 
l 90 91 
l 91 92 
l 92 93 
l 93 94 
l 94 95 
l 95 96 
l 96 97 
l 97 98 
l 98 99 
l 99 100 
l 100 101 
l 101 102 
l 102 103 
l 103 104 
l 104 105 
l 105 106 
l 106 107 
l 107 108 
l 108 109 
l 109 110 
l 110 111 
l 111 112 
l 112 113 
l 113 114 
l 114 115 
l 115 116 
l 116 117 
l 117 118 
l 118 119 
l 119 120 
l 120 121 
l 121 122 
l 122 123 
l 123 124 
l 124 125 
l 125 126 
l 126 127 
l 127 128 
l 128 129 
l 129 130 
l 130 131 
l 131 132 
l 132 133 
l 133 134 
l 134 135 
l 135 136 
l 136 137 
l 137 138 
l 138 139 
l 139 140 
l 140 141 
l 141 142 
l 142 143 
l 142 144 
l 144 145 
l 145 146 
l 146 147 
l 147 148 
l 148 149 
l 149 150 
l 150 151 
l 151 152 
l 152 153 
l 153 154 
l 154 155 
l 155 156 
l 156 157 
l 157 158 
l 158 159 
l 159 160 
l 160 161 
l 161 162 
l 162 163 
l 163 164 
l 164 165 
l 165 166 
l 166 167 
l 167 168 
l 168 169 
l 169 170 
l 170 171 
l 171 172 
l 172 173 
l 173 174 
l 174 175 
l 175 176 
l 175 177 
l 177 178 
l 178 179 
l 179 180 
l 180 181 
l 181 182 
l 182 183 
l 183 184 
l 184 185 
l 185 186 
l 186 187 
l 187 188 
l 188 189 
l 189 190 
l 190 191 
l 176 192 
l 192 193 
l 193 194 
l 194 195 
l 195 196 
l 196 197 
l 197 198 
l 198 199 
l 199 200 
l 200 201 
l 201 202 
l 202 203 
l 203 204 
l 204 205 
l 205 206 
l 206 207 
l 207 208 
l 208 209 
l 209 210 
l 210 211 
l 211 212 
l 212 213 
l 213 214 
l 214 215 
l 215 216 
l 216 217 
l 217 218 
l 218 219 
l 219 220 
l 220 221 
l 221 222 
l 222 223 
l 223 224 
l 224 225 
l 225 226 
l 226 227 
l 227 228 
l 228 229 
l 229 230 
l 230 231 
l 231 232 
l 232 233 
l 233 234 
l 143 235 
l 235 236 
l 236 237 
l 237 238 
l 238 239 
l 239 240 
l 240 241 
l 241 242 
l 242 243 
l 243 244 
l 244 245 
l 245 246 
l 246 247 
l 247 248 
l 248 249 
l 249 250 
l 250 251 
l 251 252 
l 252 253 
l 253 254 
l 254 255 
l 255 256 
l 256 257 
l 257 258 
l 258 259 
l 259 260 
l 260 261 
l 261 262 
l 262 263 
l 263 264 
l 264 265 
l 265 266 
l 266 267 
l 267 268 
l 268 269 
l 269 270 
l 270 271 
l 271 272 
l 272 273 
l 273 274 
l 274 275 
l 275 276 
l 276 277 
l 277 278 
l 278 279 
l 279 280 
l 280 281 
l 281 282 
l 282 283 
l 283 284 
l 284 285 
l 285 286 
l 286 287 
l 287 288 
l 288 289 
l 289 290 
l 290 291 
l 291 292 
l 292 293 
l 293 294 
l 294 295 
l 295 296 
l 296 297 
l 297 298 
l 298 299 
l 299 300 
l 300 301 
l 301 302 
l 302 303 
l 303 304 
l 304 305 
l 305 306 
l 306 307 
l 307 308 
l 308 309 
l 309 310 
l 310 311 
l 311 312 
l 312 313 
l 313 314 
l 314 315 
l 315 316 
l 316 317 
l 316 318 
l 318 319 
l 319 320 
l 320 321 
l 321 322 
l 322 323 
l 323 324 
l 324 325 
l 325 326 
l 326 327 
l 327 328 
l 328 329 
l 329 330 
l 330 331 
l 331 332 
l 317 333 
l 333 334 
l 334 335 
l 335 336 
l 336 337 
l 337 338 
l 338 339 
l 339 340 
l 340 341 
l 341 342 
l 342 343 
l 343 344 
l 344 345 
l 345 346 
l 346 347 
l 347 348 
l 348 349 
l 349 350 
l 350 351 
l 351 352 
l 352 353 
l 353 354 
l 354 355 

