v 149.46 247.86 142.68
v 149.58 248.74 142.81
v 149.81 252.09 143.18
v 149.9 252.94 143.32
v 149.77 251.25 143.07
v 149.64 249.4 142.9
v 149.67 249.71 142.91
v 149.73 250.42 142.99
v 143.31 290.85 102.39
v 143.48 290.44 103.27
v 143.61 290.15 103.88
v 143.69 289.97 104.26
v 143.8 289.68 104.86
v 140.56 293.93 94.782
v 140.42 294.18 94.237
v 140.79 293.61 95.338
v 140.89 293.36 95.81
v 141.36 292.77 97.044
v 141.03 293.12 96.294
v 141.66 292.62 97.682
v 142.09 292.3 98.654
v 142.33 292.13 99.193
v 141.85 292.47 98.12
v 142.51 292 99.61
v 142.88 291.7 100.5
v 143.02 291.51 100.99
v 142.66 291.88 99.963
v 143.08 291.4 101.24
v 143.19 291.15 101.76
v 145.71 277.6 124.87
v 145.85 277.27 125.39
v 146.06 276.96 125.96
v 146.45 276.61 126.79
v 146.83 276.33 127.61
v 144.11 289.02 106.37
v 144.34 288.61 107.42
v 144.44 288.38 108.19
v 144.47 288.2 108.98
v 144.53 288.08 109.78
v 144.6 287.93 110.73
v 140.15 281.81 116.43
v 140.92 281.83 116.99
v 141.7 281.96 117.38
v 142.32 282.08 117.64
v 144.66 287.16 112.64
v 144.72 286.64 113.57
v 144.6 287.56 111.71
v 144.64 287.33 112.26
v 144.77 286.02 114.48
v 144.64 285.45 114.99
v 143.93 289.42 105.43
v 143.99 289.29 105.72
v 144.78 280.43 120.93
v 144.65 280.88 120.39
v 142.75 282.21 117.77
v 143.83 282.5 118.13
v 144.97 279.98 121.53
v 145.14 279.55 122.12
v 145.38 279.02 122.89
v 144.09 282.22 118.6
v 144.36 281.56 119.5
v 144.54 281.17 119.97
v 145.62 277.96 124.37
v 144.3 283.32 117.49
v 145.45 278.64 123.4
v 147.31 276.04 128.54
v 147.69 275.9 129.18
v 147.08 276.19 128.11
v 148.47 275.48 130.65
v 148.09 275.7 129.93
v 149.16 275.12 131.84
v 149.54 274.88 132.54
v 150.03 274.63 133.33
v 151.17 274.01 135.31
v 150.78 274.19 134.61
v 148.85 275.3 131.33
v 150.32 274.43 133.81
v 150.59 274.28 134.28
v 153.12 273.59 139.05
v 152.79 273.64 138.45
v 152.36 273.66 137.62
v 151.56 273.86 136.05
v 152.03 273.72 136.99
v 153.53 273.63 139.87
v 153.96 273.75 140.71
v 150.14 254.39 143.47
v 149.98 253.75 143.4
v 150.29 255.18 143.59
v 150.63 256.07 143.78
v 151.44 257.61 144.16
v 151.89 258.37 144.39
v 152.17 258.99 144.53
v 150.99 256.75 143.95
v 152.58 259.51 144.65
v 152.98 260.11 144.94
v 153.51 260.97 145.21
v 153.88 261.5 145.38
v 154.31 262.14 145.59
v 154.84 262.91 145.87
v 155.15 263.33 145.99
v 156.44 265.29 146.91
v 156.89 266.14 147.35
v 155.59 263.9 146.25
v 156.01 264.73 146.61
v 157.22 266.66 147.58
v 157.41 267.2 147.81
v 154.75 273.8 142.15
v 155.21 273.75 142.96
v 155.61 273.8 143.67
v 156.16 273.4 144.76
v 156.68 272.91 145.8
v 157.69 268.08 148.22
v 158.21 270.13 148.96
v 158.47 270.3 149.45
v 158.82 270.46 150.11
v 158.03 269.12 148.72
v 157.86 268.62 148.47
v 158.07 271.12 148.55
v 157.51 271.84 147.45
v 157.81 271.43 148.06
v 157.22 272.22 146.87
v 159.46 270.8 151.31
v 159.61 270.86 151.62
v 159.88 270.93 152.1
v 248.75 298.13 140.4
v 248.21 297.75 141.25
v 249.27 298.47 139.58
v 249.81 298.73 138.84
v 250.18 298.87 138.39
v 250.67 298.99 137.86
v 251.28 299.06 137.33
v 243.8 293.4 147.63
v 244.05 293.52 147.16
v 243.42 293.26 148.33
v 242.11 293.21 152.63
v 241.78 293.71 154.11
v 242.35 293.02 151.62
v 242.86 293.01 149.96
v 242.34 296.6 154.54
v 242.48 297.26 154.6
v 242.63 297.79 154.61
v 246.26 295.95 143.77
v 246.08 295.53 144.05
v 245.72 294.94 144.56
v 244.96 294.06 145.66
v 244.78 293.92 145.94
v 244.53 293.76 146.35
v 245.36 294.44 145.06
v 246.65 296.23 143.42
v 247.36 296.98 142.54
v 246.9 296.5 143.17
v 247.86 297.37 141.85
v 244.34 302.45 154.7
v 244.1 301.81 154.68
v 187.36 239.11 299.41
v 187.27 238.95 299.79
v 189 258.32 257
v 189.02 258.39 256.36
v 189.05 257.56 259.1
v 189.02 257.79 258.43
v 189.43 255.99 262.86
v 189.38 256.25 262.28
v 189.51 255.63 263.79
v 189.58 255.25 264.98
v 189.68 255.04 265.96
v 189.81 254.24 267.41
v 189.75 254.55 266.81
v 189.89 253.9 268.18
v 190.16 252.87 270.73
v 190.29 252.45 271.92
v 190.33 251.84 273.4
v 190.31 252.18 272.74
v 189.95 253.67 268.72
v 190.04 253.32 269.55
v 190.35 251.44 274.1
v 189.43 244.79 283.89
v 189.77 245.59 282.64
v 190.39 249.16 277.9
v 190.41 249.84 276.97
v 189.02 243.88 285.47
v 188.79 243.44 286.23
v 189.28 244.44 284.56
v 188.71 243.12 286.88
v 188.52 242.77 287.48
v 189.99 246.18 281.83
v 190.38 250.59 275.63
v 190.4 250.22 276.28
v 190.37 251.1 274.75
v 190.38 248.71 278.55
v 190.31 247.88 279.66
v 190.25 247.31 280.37
v 188.33 242.2 288.85
v 188.24 241.87 289.71
v 188.17 241.51 290.78
v 188 240.55 294.73
v 188.07 240.66 294.18
v 187.71 239.93 297.18
v 187.8 240.14 296.42
v 187.88 240.31 295.76
v 187.6 239.6 298.17
v 187.44 239.26 299.03
v 188.17 241.38 291.19
v 188.11 241.2 291.94
v 188.1 241.02 292.73
v 188.09 240.85 293.52
v 187.47 239.33 298.86
v 160.17 271.05 152.76
v 161.02 271.47 154.58
v 160.67 271.27 153.83
v 160.45 271.17 153.38
v 161.88 272.31 157.33
v 162.3 272.5 158.37
v 161.67 272 156.45
v 161.5 271.7 155.52
v 162.95 272.87 160.23
v 163.2 272.98 161
v 162.72 272.68 159.48
v 162.48 272.58 158.87
v 163.48 272.98 161.54
v 164.11 273.2 163.03
v 163.94 273.11 162.52
v 164.28 273.25 163.75
v 164.46 273.29 164.38
v 164.67 273.31 164.99
v 165.95 273.34 167.88
v 165.71 273.35 167.36
v 166.2 273.31 168.57
v 166.54 273.24 169.31
v 166.75 273.19 169.94
v 167.06 273.11 170.96
v 167.27 273.05 171.66
v 164.93 273.33 165.68
v 165.24 273.36 166.4
v 166.95 273.15 170.57
v 167.68 272.42 175.14
v 167.61 272.63 174.2
v 168.03 271.95 178.15
v 168.13 271.85 178.96
v 168.1 271.76 179.56
v 167.51 272.92 172.77
v 167.56 272.75 173.63
v 167.78 272.28 175.99
v 167.89 272.13 176.87
v 144.83 264.58 181.08
v 145.69 264.3 181.15
v 146.38 264.08 181.22
v 147.04 263.88 181.32
v 147.88 263.86 181.37
v 149.75 263.91 181.5
v 150.2 264.04 181.54
v 151.56 264.61 181.79
v 150.78 264.24 181.63
v 155.34 267.18 183.78
v 154.89 266.82 183.58
v 143.81 264.99 180.99
v 143 265.39 180.94
v 142.15 265.82 180.87
v 141.62 265.95 180.75
v 141.5 265.93 180.64
v 152.4 265.07 182.24
v 153.37 265.6 182.7
v 154.23 266.28 183.08
v 156.12 267.84 184.4
v 157.52 268.66 183.76
v 157.95 268.85 183.59
v 156.86 268.3 184.12
v 160.26 269.77 182.76
v 161.24 270.05 182.46
v 153.3 266.63 189.62
v 153.52 266.73 189.24
v 155.92 267.84 185.24
v 155.48 267.64 185.9
v 153.75 266.84 188.85
v 154.2 267.07 188.07
v 152.93 266.46 190.18
v 154.91 267.39 186.91
v 149.89 264.88 196.15
v 150.04 265.29 195.52
v 150.19 265.54 194.98
v 149.83 264.66 196.48
v 149.67 264.01 197.47
v 149.56 263.22 198.77
v 149.57 263.56 198.16
v 148.72 261.79 201.63
v 148.59 261.61 201.99
v 148.96 262.08 201.08
v 149.21 262.3 200.45
v 149.45 262.77 199.65
v 150.96 265.62 193.23
v 150.8 265.59 193.55
v 151.95 265.96 191.57
v 152.41 266.18 190.91
v 150.57 265.56 194.04
v 151.4 265.74 192.44
v 158.39 269.07 183.4
v 159.16 269.39 183.14
v 166.51 271.26 180.92
v 165.91 271.11 181.04
v 165.26 270.96 181.19
v 164.57 270.82 181.25
v 162.05 270.24 182.15
v 163.38 270.53 181.63
v 168.27 271.65 180.76
v 167.11 271.41 180.79
v 169.6 271.81 181.89
v 171.37 271.98 183.65
v 170.56 271.91 182.86
v 171.91 272.02 184.14
v 173.07 272.07 185.23
v 173.56 272.08 185.69
v 178.25 272.22 189.76
v 179.09 272.21 190.51
v 176.4 272.18 187.97
v 177.27 272.2 188.85
v 177.77 272.2 189.38
v 180.55 272.18 192.2
v 179.95 272.2 191.53
v 180.99 272.17 192.72
v 182.36 272.17 194.31
v 182.74 272.19 194.74
v 183.43 272.22 195.43
v 181.37 272.16 193.16
v 181.74 272.16 193.59
v 174.62 272.15 186.51
v 175.73 272.17 187.42
v 175.02 272.16 186.91
v 231.94 286.43 165.38
v 231.36 286.41 165.65
v 224.64 285.67 169.08
v 225.28 285.76 168.77
v 227.29 286.09 167.72
v 228.39 286.18 167.14
v 220.64 285.02 171.46
v 219.65 284.84 172.2
v 214.67 283.9 175.47
v 215.15 284.01 175.15
v 218.72 284.67 172.85
v 218.25 284.57 173.14
v 212.5 283.44 177.04
v 212.22 283.38 177.26
v 214.41 283.84 175.65
v 211.84 283.3 177.58
v 213.12 283.57 176.57
v 219.14 284.77 172.58
v 226.02 285.89 168.39
v 230.62 286.36 166.01
v 230.04 286.33 166.3
v 229.84 286.32 166.4
v 229.31 286.29 166.67
v 221.25 285.15 171.04
v 221.74 285.22 170.74
v 222.18 285.3 170.46
v 217.32 284.37 173.75
v 216.73 284.27 174.13
v 222.68 285.38 170.15
v 223.94 285.57 169.46
v 223.69 285.54 169.58
v 223.39 285.5 169.74
v 203.21 280.36 185.92
v 203.61 280.57 185.57
v 199.45 278.11 190.49
v 199.79 278.34 189.95
v 202.17 279.79 186.93
v 201.53 279.44 187.58
v 204.15 280.87 185.09
v 201.13 279.21 188.03
v 200.74 278.97 188.54
v 202.73 280.1 186.37
v 189.48 271.78 202.25
v 189.54 271.55 203.45
v 184.93 272.17 196.96
v 184.21 272.15 196.27
v 193.28 273.56 198
v 192.48 273.08 198.56
v 194.27 274.29 197.05
v 191.35 272.5 199.75
v 190.39 272.19 200.46
v 189.37 272 200.97
v 194.54 274.58 196.68
v 195.06 274.95 196.14
v 185.5 272.18 197.55
v 186.31 272.15 198.42
v 189.47 271.87 201.73
v 199.15 277.85 190.93
v 198.58 277.51 191.88
v 206.94 282.1 182.26
v 206.55 281.96 182.62
v 208.46 282.56 180.79
v 207.98 282.44 181.23
v 207.59 282.32 181.62
v 200.08 278.53 189.51
v 196.82 276.33 194.14
v 196.4 276.05 194.62
v 197.19 276.54 193.7
v 195.67 275.46 195.45
v 186.84 272.14 198.94
v 187.38 272.07 199.46
v 187.8 272.05 199.86
v 188.18 272.03 200.21
v 197.94 276.98 192.68
v 198.28 277.24 192.24
v 197.66 276.82 193.07
v 208.89 282.67 180.41
v 209.4 282.79 179.97
v 213.99 283.75 175.94
v 210.25 282.99 179.35
v 205.8 281.64 183.38
v 206.07 281.77 183.08
v 204.5 281.02 184.73
v 204.84 281.21 184.41
v 205.23 281.41 184.02
v 148.54 261.56 202.12
v 189.98 268.3 214.5
v 189.83 268.8 213.01
v 190.23 267.37 216.76
v 190.29 267.15 217.42
v 190.17 267.63 215.98
v 189.6 270.68 207.35
v 189.55 270.38 208.24
v 189.63 269.99 209.42
v 189.67 269.77 210.21
v 189.73 269.37 211.38
v 190.38 266.79 218.46
v 189.69 264.65 228.09
v 189.77 264.84 227.34
v 189.77 269.05 212.29
v 190.1 268.11 215
v 190.44 266.32 219.82
v 190.42 266.49 219.31
v 190.46 266.13 220.41
v 190.03 265.22 225.65
v 190.22 265.31 224.77
v 190.47 265.97 220.96
v 190.46 265.82 221.59
v 190.42 265.64 222.55
v 190.35 265.51 223.44
v 190.27 265.41 224.22
v 189.4 271.42 204.06
v 189.41 271.18 205.21
v 189.39 271.33 204.56
v 189.46 270.98 206.08
v 189.44 271.04 205.83
v 189.53 270.8 206.76
v 189.55 264.13 230.02
v 189.59 264.32 229.32
v 189.51 263.96 230.64
v 189.5 263.88 230.95
v 189.48 263.79 231.24
v 189.4 263.09 233.45
v 189.39 262.7 234.33
v 189.42 263.33 232.75
v 189.62 264.47 228.79
v 189.32 261.26 237.52
v 189.37 261.92 236.07
v 189.39 262.31 235.18
v 189.42 260.22 240.25
v 189.44 260.02 240.88
v 189.38 260.53 239.37
v 189.35 260.7 238.9
v 189.34 260.85 238.52
v 189.33 261.02 238.1
v 190 265.15 225.97
v 189.93 265.04 226.48
v 189.46 263.56 232.02
v 189.43 259.3 243.34
v 189.41 259.51 242.55
v 189.43 259.19 243.79
v 189.26 258.71 250.41
v 189.26 258.72 251.1
v 189.47 259.72 241.83
v 189.39 258.98 244.36
v 189.4 260.38 239.8
v 189.37 258.85 245.02
v 189.34 258.66 246.36
v 189.37 258.73 245.66
v 189.31 258.6 247.5
v 189.31 258.74 248.66
v 189.27 258.72 249.49
v 189.23 258.73 251.69
v 189.21 258.72 252.12
v 189.04 258.47 255.67
v 189.06 258.5 255.31
v 189.1 258.61 254.21
v 189.34 256.48 261.77
v 189.54 255.43 264.27
v 189.22 257.1 260.49
v 189.26 256.88 260.92
v 189.14 257.35 259.89
v 189.01 258 257.88
v 190.1 253.11 270.09
v 189.73 254.69 266.53
v 254.36 278.45 165.83
v 254.89 278.2 165.37
v 255.66 278.09 164.79
v 252.94 278.82 167.1
v 253.4 278.73 166.76
v 253.66 278.37 172.31
v 253.2 278.43 171.59
v 254.61 278.26 173.78
v 254.3 278.29 173.27
v 254.93 278.22 174.32
v 255.43 278.15 175.18
v 256.07 278 176.29
v 256.51 277.85 177.06
v 259.44 277.8 162.59
v 258.63 277.81 163
v 261.29 277.92 161.83
v 260.48 277.82 162.14
v 262.63 277.9 161.21
v 261.99 277.94 161.45
v 259.66 277.8 162.5
v 237.41 288.55 161.42
v 237.07 287.89 162.18
v 239.55 290.96 158.01
v 238.9 290.33 159.04
v 233.58 286.47 164.72
v 234.26 286.56 164.37
v 240.66 283.7 164.87
v 240.19 283.92 164.75
v 242.01 283.04 165.2
v 242.52 282.79 165.38
v 241.63 283.21 165.08
v 243.47 282.5 165.55
v 244.18 282.3 165.59
v 236.06 286.62 163.72
v 236.69 286.4 163.71
v 237.46 285.72 164.05
v 237.02 286.15 163.83
v 238.16 289.56 160.14
v 244.89 282.04 165.83
v 247.34 280.94 166.73
v 248.04 280.65 166.99
v 245.43 281.72 166.07
v 239.96 291.37 157.34
v 240.14 291.55 157.05
v 240.47 291.88 156.52
v 240.77 292.21 156.01
v 241.08 292.57 155.47
v 241.35 292.93 154.96
v 243.9 301.26 154.68
v 242.85 298.5 154.67
v 243.12 299.26 154.69
v 243.48 300.01 154.73
v 242.12 295.58 154.44
v 237.85 289.12 160.74
v 241.43 293.04 154.79
v 243.65 300.55 154.69
v 232.57 286.45 165.1
v 239.46 284.39 164.64
v 243.06 282.63 165.46
v 238.49 285.01 164.37
v 238.86 284.76 164.48
v 245.93 281.53 166.23
v 246.53 281.29 166.42
v 248.94 280.22 167.37
v 253.84 278.58 166.3
v 249.78 279.88 167.79
v 250.46 279.61 168.09
v 252.49 278.93 167.54
v 251.4 279.2 168.55
v 252.76 278.51 170.91
v 252.42 278.59 170.3
v 253.95 278.33 172.75
v 252 278.85 169.49
v 236.46 287.24 163.03
v 235.05 286.64 164.02
v 257.18 277.8 163.76
v 256.34 277.94 164.31
v 257.96 277.85 163.36
v 263.46 277.97 160.89
v 255.69 278.09 175.63
v 257.01 277.59 177.81
v 256.98 277.9 178.33
v 256.85 278.47 179.12
v 263.26 265.25 184.77
v 263.69 264.2 185.38
v 264.03 263.16 185.85
v 263.88 263.65 185.59
v 262.31 267.8 183.27
v 262.63 266.88 183.79
v 261.39 270.72 181.73
v 261.23 271.36 181.4
v 261.57 270.1 182.05
v 261.94 268.93 182.66
v 261.8 269.37 182.43
v 261.73 269.61 182.31
v 262.12 268.36 182.96
v 262.76 266.53 183.99
v 262.97 265.96 184.33
v 259.28 274.94 179.16
v 258.81 275.6 178.77
v 259.86 274.15 179.72
v 260.36 273.46 180.25
v 260.76 272.9 180.57
v 257.84 276.7 178.31
v 261.02 272.1 181
v 256.81 278.98 180.03
v 256.77 279.31 180.61
v 256.69 279.66 181.44
v 256.73 279.96 182.03
v 256.85 280.61 183.32
v 256.98 280.84 183.9
v 244.52 302.93 154.71
v 257.01 280.91 184.06
v 144.62 284.96 115.7
v 144.57 284.58 116.11
v 144.46 284.08 116.67
v 148.85 263.84 181.43
v 251.59 299.05 137.12
v 243.17 293.17 149.02
v 210.58 283.07 178.89
v 216.08 284.19 174.53
v 159.27 270.71 150.94
v 211.41 283.21 177.99
v 210.73 283.08 178.7
v 215.59 284.11 174.85
v 190.2 247.06 280.75
v 190.09 246.62 281.41
v 172.71 272.06 184.89
v 189.46 259.87 241.35
v 189.19 258.72 252.47
v 189.14 258.67 253.48
v 189.17 258.7 252.86
v 190.39 265.57 222.99
l 1 2 
l 3 4 
l 5 3 
l 6 2 
l 6 7 
l 8 7 
l 5 8 
l 9 10 
l 11 12 
l 13 12 
l 14 15 
l 16 17 
l 14 16 
l 18 19 
l 18 20 
l 21 22 
l 20 23 
l 21 23 
l 17 19 
l 22 24 
l 25 26 
l 24 27 
l 25 27 
l 28 29 
l 9 29 
l 28 26 
l 10 11 
l 30 31 
l 32 31 
l 33 32 
l 34 33 
l 35 36 
l 37 36 
l 37 38 
l 39 38 
l 39 40 
l 41 42 
l 43 44 
l 45 46 
l 47 48 
l 48 45 
l 40 47 
l 49 50 
l 51 13 
l 35 52 
l 51 52 
l 42 43 
l 53 54 
l 44 55 
l 55 56 
l 53 57 
l 58 57 
l 58 59 
l 60 61 
l 60 56 
l 61 62 
l 62 54 
l 30 63 
l 56 64 
l 63 65 
l 59 65 
l 66 67 
l 34 68 
l 66 68 
l 69 70 
l 71 72 
l 72 73 
l 74 75 
l 76 69 
l 77 73 
l 77 78 
l 79 80 
l 78 75 
l 80 81 
l 82 83 
l 83 81 
l 84 85 
l 86 87 
l 4 87 
l 86 88 
l 89 88 
l 90 91 
l 91 92 
l 93 90 
l 92 94 
l 94 95 
l 96 95 
l 96 97 
l 98 97 
l 98 99 
l 99 100 
l 101 102 
l 103 104 
l 105 106 
l 107 108 
l 109 108 
l 109 110 
l 110 111 
l 102 105 
l 106 112 
l 113 114 
l 114 115 
l 116 117 
l 118 113 
l 119 120 
l 119 121 
l 121 111 
l 113 116 
l 122 123 
l 124 123 
l 125 126 
l 125 127 
l 128 129 
l 128 127 
l 130 131 
l 130 129 
l 132 133 
l 132 134 
l 135 136 
l 137 135 
l 138 137 
l 139 140 
l 141 140 
l 142 143 
l 144 143 
l 145 146 
l 147 146 
l 145 148 
l 148 144 
l 142 149 
l 150 151 
l 152 126 
l 152 150 
l 147 133 
l 153 154 
l 155 156 
l 157 158 
l 159 160 
l 161 162 
l 161 163 
l 164 165 
l 166 167 
l 166 168 
l 169 170 
l 171 172 
l 173 174 
l 175 171 
l 176 177 
l 178 179 
l 180 181 
l 182 176 
l 183 184 
l 185 177 
l 183 181 
l 182 180 
l 186 187 
l 188 186 
l 187 179 
l 189 178 
l 189 190 
l 191 190 
l 192 193 
l 194 193 
l 184 192 
l 195 196 
l 197 198 
l 198 199 
l 197 200 
l 201 155 
l 199 195 
l 202 194 
l 203 202 
l 203 204 
l 196 205 
l 204 205 
l 200 206 
l 201 206 
l 124 207 
l 208 209 
l 210 209 
l 211 212 
l 211 213 
l 208 214 
l 215 216 
l 217 215 
l 212 218 
l 218 217 
l 216 219 
l 220 221 
l 220 222 
l 222 223 
l 223 224 
l 219 221 
l 225 226 
l 227 228 
l 229 228 
l 230 231 
l 232 233 
l 233 226 
l 225 227 
l 234 229 
l 234 230 
l 235 236 
l 237 238 
l 238 239 
l 231 240 
l 240 241 
l 235 242 
l 237 243 
l 242 243 
l 224 232 
l 244 245 
l 246 245 
l 247 248 
l 249 250 
l 251 252 
l 253 254 
l 255 256 
l 257 258 
l 257 256 
l 259 258 
l 244 255 
l 247 246 
l 252 250 
l 260 251 
l 261 262 
l 262 254 
l 253 263 
l 264 265 
l 266 264 
l 267 268 
l 269 270 
l 263 266 
l 263 271 
l 272 271 
l 273 270 
l 273 274 
l 269 275 
l 272 276 
l 277 278 
l 279 278 
l 280 281 
l 277 280 
l 282 283 
l 281 283 
l 284 285 
l 284 286 
l 287 288 
l 287 286 
l 289 290 
l 291 292 
l 293 290 
l 289 294 
l 293 279 
l 265 295 
l 296 295 
l 297 298 
l 298 299 
l 299 300 
l 301 268 
l 301 302 
l 302 300 
l 239 303 
l 303 304 
l 297 304 
l 305 303 
l 306 307 
l 308 306 
l 309 310 
l 311 312 
l 313 314 
l 314 315 
l 315 311 
l 316 317 
l 316 318 
l 319 320 
l 321 320 
l 318 322 
l 319 323 
l 307 305 
l 310 324 
l 325 326 
l 313 325 
l 327 328 
l 329 330 
l 331 332 
l 333 334 
l 335 336 
l 337 338 
l 339 340 
l 335 341 
l 340 342 
l 339 343 
l 344 337 
l 334 344 
l 345 331 
l 346 347 
l 348 349 
l 333 350 
l 350 351 
l 351 352 
l 353 354 
l 352 355 
l 356 357 
l 358 355 
l 345 330 
l 349 332 
l 359 360 
l 361 362 
l 363 364 
l 365 360 
l 366 367 
l 368 363 
l 369 370 
l 371 372 
l 373 374 
l 375 373 
l 376 377 
l 378 377 
l 376 374 
l 379 375 
l 380 379 
l 381 382 
l 383 369 
l 384 385 
l 384 361 
l 386 387 
l 388 389 
l 386 390 
l 362 391 
l 367 391 
l 364 366 
l 392 393 
l 392 394 
l 395 393 
l 380 395 
l 396 397 
l 396 382 
l 398 399 
l 398 397 
l 378 399 
l 400 401 
l 400 402 
l 403 404 
l 403 388 
l 405 341 
l 405 343 
l 406 404 
l 407 408 
l 387 408 
l 409 410 
l 411 410 
l 390 389 
l 285 412 
l 413 414 
l 415 416 
l 417 415 
l 418 419 
l 420 419 
l 421 422 
l 420 421 
l 416 423 
l 424 425 
l 426 414 
l 427 413 
l 427 417 
l 428 429 
l 428 430 
l 431 432 
l 430 433 
l 434 433 
l 435 434 
l 436 437 
l 437 432 
l 378 383 
l 370 438 
l 439 440 
l 438 440 
l 441 442 
l 441 443 
l 443 418 
l 444 445 
l 444 446 
l 447 446 
l 447 448 
l 449 450 
l 451 449 
l 424 452 
l 453 454 
l 455 454 
l 456 457 
l 458 459 
l 460 461 
l 450 455 
l 431 462 
l 463 462 
l 463 425 
l 452 445 
l 464 448 
l 465 466 
l 465 467 
l 468 469 
l 470 466 
l 471 467 
l 458 472 
l 471 473 
l 474 475 
l 473 475 
l 459 460 
l 474 476 
l 476 477 
l 478 477 
l 479 480 
l 481 482 
l 483 482 
l 162 484 
l 163 485 
l 481 158 
l 486 487 
l 486 488 
l 160 489 
l 488 159 
l 469 479 
l 174 490 
l 491 165 
l 168 173 
l 169 490 
l 492 493 
l 494 493 
l 495 496 
l 497 498 
l 499 500 
l 501 502 
l 503 504 
l 505 506 
l 507 508 
l 509 510 
l 511 508 
l 512 513 
l 514 515 
l 516 517 
l 518 519 
l 520 521 
l 520 522 
l 523 524 
l 518 522 
l 525 526 
l 527 528 
l 528 526 
l 529 515 
l 524 530 
l 531 532 
l 530 533 
l 514 534 
l 535 534 
l 535 536 
l 536 537 
l 538 537 
l 539 538 
l 154 540 
l 541 542 
l 543 542 
l 139 544 
l 141 541 
l 529 545 
l 545 512 
l 546 136 
l 136 544 
l 543 547 
l 346 328 
l 327 548 
l 549 519 
l 523 550 
l 551 527 
l 551 552 
l 553 554 
l 555 532 
l 553 533 
l 556 496 
l 492 556 
l 557 558 
l 559 560 
l 498 561 
l 562 561 
l 521 550 
l 554 531 
l 563 500 
l 564 562 
l 548 516 
l 565 525 
l 525 566 
l 507 510 
l 567 568 
l 506 569 
l 568 494 
l 570 509 
l 497 563 
l 501 499 
l 503 571 
l 504 572 
l 572 573 
l 573 574 
l 575 576 
l 577 578 
l 579 580 
l 581 582 
l 583 581 
l 584 585 
l 585 586 
l 583 586 
l 587 579 
l 580 588 
l 589 588 
l 584 587 
l 590 591 
l 592 590 
l 593 592 
l 593 594 
l 591 595 
l 595 572 
l 596 582 
l 596 594 
l 589 575 
l 597 574 
l 598 597 
l 598 599 
l 600 601 
l 601 602 
l 153 603 
l 282 288 
l 505 511 
l 567 569 
l 576 578 
l 599 600 
l 604 602 
l 50 605 
l 49 46 
l 605 606 
l 607 64 
l 85 107 
l 93 89 
l 100 103 
l 608 248 
l 547 540 
l 609 131 
l 606 607 
l 74 82 
l 104 101 
l 134 610 
l 151 149 
l 249 608 
l 291 294 
l 312 317 
l 292 275 
l 76 71 
l 79 84 
l 70 67 
l 502 571 
l 138 610 
l 276 274 
l 495 559 
l 555 557 
l 560 564 
l 260 261 
l 560 558 
l 406 611 
l 546 539 
l 296 267 
l 354 612 
l 549 552 
l 112 117 
l 613 115 
l 120 118 
l 613 122 
l 213 214 
l 207 210 
l 353 338 
l 614 615 
l 347 348 
l 358 357 
l 385 401 
l 329 356 
l 615 611 
l 336 616 
l 612 616 
l 614 342 
l 409 365 
l 359 368 
l 402 394 
l 411 407 
l 175 188 
l 381 371 
l 566 517 
l 236 241 
l 513 565 
l 617 618 
l 617 191 
l 308 619 
l 324 326 
l 185 618 
l 323 322 
l 321 372 
l 456 472 
l 457 620 
l 453 461 
l 620 470 
l 480 621 
l 622 623 
l 157 489 
l 619 309 
l 491 167 
l 170 172 
l 624 436 
l 451 464 
l 487 484 
l 621 623 
l 164 485 
l 468 478 
l 622 483 
l 422 426 
l 423 429 
l 624 435 
l 439 442 

